\relax 
\providecommand\HyperFirstAtBeginDocument{\AtBeginDocument}
\HyperFirstAtBeginDocument{\ifx\hyper@anchor\@undefined
\global\let\oldcontentsline\contentsline
\gdef\contentsline#1#2#3#4{\oldcontentsline{#1}{#2}{#3}}
\global\let\oldnewlabel\newlabel
\gdef\newlabel#1#2{\newlabelxx{#1}#2}
\gdef\newlabelxx#1#2#3#4#5#6{\oldnewlabel{#1}{{#2}{#3}}}
\AtEndDocument{\ifx\hyper@anchor\@undefined
\let\contentsline\oldcontentsline
\let\newlabel\oldnewlabel
\fi}
\fi}
\global\let\hyper@last\relax 
\gdef\HyperFirstAtBeginDocument#1{#1}
\providecommand\HyField@AuxAddToFields[1]{}
\@writefile{toc}{\contentsline {section}{\numberline {1}Comparison of Best Customers from Ehsan and me}{1}{section.1}}
\@writefile{toc}{\contentsline {subsection}{\numberline {1.1}Initialization}{1}{subsection.1.1}}
\@writefile{toc}{\contentsline {subsection}{\numberline {1.2}Let's read data \ldots  {}}{3}{subsection.1.2}}
\@writefile{toc}{\contentsline {subsection}{\numberline {1.3}Let's get an overlapping\ldots  {}}{4}{subsection.1.3}}
\@writefile{toc}{\contentsline {subsection}{\numberline {1.4}Read the test data to validate selected customers by Ehsan and me\ldots  {}.}{4}{subsection.1.4}}
\@writefile{toc}{\contentsline {subsection}{\numberline {1.5}Let's print some statistics\ldots  {}}{5}{subsection.1.5}}
\@writefile{toc}{\contentsline {subsection}{\numberline {1.6}Let's do some plots}{6}{subsection.1.6}}
\@writefile{toc}{\contentsline {section}{\numberline {2}Why so happens?}{9}{section.2}}
\@writefile{toc}{\contentsline {section}{\numberline {3}Should we do this or not?}{10}{section.3}}
