\BOOKMARK [1][-]{section.1}{Comparison of Best Customers from Ehsan and me}{}% 1
\BOOKMARK [2][-]{subsection.1.1}{Initialization}{section.1}% 2
\BOOKMARK [2][-]{subsection.1.2}{Let's read data \203}{section.1}% 3
\BOOKMARK [2][-]{subsection.1.3}{Let's get an overlapping\203}{section.1}% 4
\BOOKMARK [2][-]{subsection.1.4}{Read the test data to validate selected customers by Ehsan and me\203.}{section.1}% 5
\BOOKMARK [2][-]{subsection.1.5}{Let's print some statistics\203}{section.1}% 6
\BOOKMARK [2][-]{subsection.1.6}{Let's do some plots}{section.1}% 7
\BOOKMARK [1][-]{section.2}{Why so happens?}{}% 8
\BOOKMARK [1][-]{section.3}{Should we do this or not?}{}% 9
