\relax 
\providecommand\HyperFirstAtBeginDocument{\AtBeginDocument}
\HyperFirstAtBeginDocument{\ifx\hyper@anchor\@undefined
\global\let\oldcontentsline\contentsline
\gdef\contentsline#1#2#3#4{\oldcontentsline{#1}{#2}{#3}}
\global\let\oldnewlabel\newlabel
\gdef\newlabel#1#2{\newlabelxx{#1}#2}
\gdef\newlabelxx#1#2#3#4#5#6{\oldnewlabel{#1}{{#2}{#3}}}
\AtEndDocument{\ifx\hyper@anchor\@undefined
\let\contentsline\oldcontentsline
\let\newlabel\oldnewlabel
\fi}
\fi}
\global\let\hyper@last\relax 
\gdef\HyperFirstAtBeginDocument#1{#1}
\providecommand\HyField@AuxAddToFields[1]{}
\@writefile{toc}{\contentsline {section}{\numberline {1}HR Predictive Plots and Generalized Linear Models}{1}{section.1}}
\@writefile{toc}{\contentsline {subsection}{\numberline {1.1}Outline}{1}{subsection.1.1}}
\@writefile{toc}{\contentsline {subsection}{\numberline {1.2}\#\# Introduction}{2}{subsection.1.2}}
\@writefile{toc}{\contentsline {subsection}{\numberline {1.3}\#\# Initialization}{2}{subsection.1.3}}
\@writefile{toc}{\contentsline {subsection}{\numberline {1.4}\#\#\# Reading training data}{4}{subsection.1.4}}
\@writefile{toc}{\contentsline {subsection}{\numberline {1.5}\#\#\# Reading test data}{5}{subsection.1.5}}
\@writefile{toc}{\contentsline {subsection}{\numberline {1.6}\#\# Plots}{8}{subsection.1.6}}
\@writefile{toc}{\contentsline {subsubsection}{\numberline {1.6.1}Total\_price \textasciitilde {} reise\_dauer}{10}{subsubsection.1.6.1}}
\@writefile{toc}{\contentsline {subsection}{\numberline {1.7}\#\#\# Outlier detection}{15}{subsection.1.7}}
\@writefile{toc}{\contentsline {subsubsection}{\numberline {1.7.1}total\_price \textasciitilde {} age}{21}{subsubsection.1.7.1}}
\@writefile{toc}{\contentsline {subsubsection}{\numberline {1.7.2}total\_price \textasciitilde {} no\_of\_persons}{27}{subsubsection.1.7.2}}
\@writefile{toc}{\contentsline {subsubsection}{\numberline {1.7.3}total\_price \textasciitilde {} stars}{30}{subsubsection.1.7.3}}
\@writefile{toc}{\contentsline {subsection}{\numberline {1.8}\#\#\# Correlation Maxtrix}{33}{subsection.1.8}}
\@writefile{toc}{\contentsline {subsection}{\numberline {1.9}\#\#\# A Ordinary Least Squares}{36}{subsection.1.9}}
\@writefile{toc}{\contentsline {subsection}{\numberline {1.10}\#\#\# Generalized Linear Models}{41}{subsection.1.10}}
\@writefile{toc}{\contentsline {subsubsection}{\numberline {1.10.1}Rgression Graphics}{42}{subsubsection.1.10.1}}
\@writefile{toc}{\contentsline {paragraph}{Influence plots}{43}{section*.1}}
\@writefile{toc}{\contentsline {subsection}{\numberline {1.11}\#\#\#\# Partial Regression Plots}{44}{subsection.1.11}}
\@writefile{toc}{\contentsline {subsection}{\numberline {1.12}\#\#\# The L1 penalty term in the Linear Model}{50}{subsection.1.12}}
\@writefile{toc}{\contentsline {subsection}{\numberline {1.13}\#\#\#Linear Model of the order = 2 (aka Polynomial Model of the order=2)}{51}{subsection.1.13}}
\@writefile{toc}{\contentsline {subsection}{\numberline {1.14}\#\#\#Linear Model of the order =3 (aka Polynomial Model of the order=3)}{56}{subsection.1.14}}
\@writefile{toc}{\contentsline {subsection}{\numberline {1.15}\#\# GLM Predictions on the test data}{59}{subsection.1.15}}
\@writefile{toc}{\contentsline {subsubsection}{\numberline {1.15.1}`Scaling' Effect in the predictions}{60}{subsubsection.1.15.1}}
\@writefile{toc}{\contentsline {subsubsection}{\numberline {1.15.2}Selection of the best customers with Generelazed Linear Model}{64}{subsubsection.1.15.2}}
\@writefile{toc}{\contentsline {subsection}{\numberline {1.16}\#\#\# Saving a list of customers to the file}{67}{subsection.1.16}}
\@writefile{toc}{\contentsline {subsubsection}{\numberline {1.16.1}Comparison of DecisionTrees and GLM predictions}{68}{subsubsection.1.16.1}}
\@writefile{toc}{\contentsline {subsection}{\numberline {1.17}\#\#\#Cross-validation of the GLM model}{69}{subsection.1.17}}
\@writefile{toc}{\contentsline {subsection}{\numberline {1.18}\#\#Conclusions}{71}{subsection.1.18}}
