\relax 
\providecommand\HyperFirstAtBeginDocument{\AtBeginDocument}
\HyperFirstAtBeginDocument{\ifx\hyper@anchor\@undefined
\global\let\oldcontentsline\contentsline
\gdef\contentsline#1#2#3#4{\oldcontentsline{#1}{#2}{#3}}
\global\let\oldnewlabel\newlabel
\gdef\newlabel#1#2{\newlabelxx{#1}#2}
\gdef\newlabelxx#1#2#3#4#5#6{\oldnewlabel{#1}{{#2}{#3}}}
\AtEndDocument{\ifx\hyper@anchor\@undefined
\let\contentsline\oldcontentsline
\let\newlabel\oldnewlabel
\fi}
\fi}
\global\let\hyper@last\relax 
\gdef\HyperFirstAtBeginDocument#1{#1}
\providecommand\HyField@AuxAddToFields[1]{}
\@writefile{toc}{\contentsline {section}{\numberline {1}Manifold methods of the HR Predictive data}{1}{section.1}}
\@writefile{toc}{\contentsline {subsection}{\numberline {1.1}\#\# Initialization}{1}{subsection.1.1}}
\@writefile{toc}{\contentsline {subsection}{\numberline {1.2}Pipelines of the transformers}{3}{subsection.1.2}}
\@writefile{toc}{\contentsline {subsection}{\numberline {1.3}Reading training data}{4}{subsection.1.3}}
\@writefile{toc}{\contentsline {subsection}{\numberline {1.4}Transformation of the training data}{6}{subsection.1.4}}
\@writefile{toc}{\contentsline {subsubsection}{\numberline {1.4.1}Reading the test data}{6}{subsubsection.1.4.1}}
\@writefile{toc}{\contentsline {subsubsection}{\numberline {1.4.2}Definition of the \texttt  {X}: the n-dimensional feature space}{10}{subsubsection.1.4.2}}
\@writefile{toc}{\contentsline {subsubsection}{\numberline {1.4.3}Dimensionality Reduction: PCA}{10}{subsubsection.1.4.3}}
\@writefile{toc}{\contentsline {subsection}{\numberline {1.5}Clustering}{15}{subsection.1.5}}
\@writefile{toc}{\contentsline {subsection}{\numberline {1.6}Save results}{17}{subsection.1.6}}
