\relax 
\providecommand\HyperFirstAtBeginDocument{\AtBeginDocument}
\HyperFirstAtBeginDocument{\ifx\hyper@anchor\@undefined
\global\let\oldcontentsline\contentsline
\gdef\contentsline#1#2#3#4{\oldcontentsline{#1}{#2}{#3}}
\global\let\oldnewlabel\newlabel
\gdef\newlabel#1#2{\newlabelxx{#1}#2}
\gdef\newlabelxx#1#2#3#4#5#6{\oldnewlabel{#1}{{#2}{#3}}}
\AtEndDocument{\ifx\hyper@anchor\@undefined
\let\contentsline\oldcontentsline
\let\newlabel\oldnewlabel
\fi}
\fi}
\global\let\hyper@last\relax 
\gdef\HyperFirstAtBeginDocument#1{#1}
\providecommand\HyField@AuxAddToFields[1]{}
\@writefile{toc}{\contentsline {section}{\numberline {1}HR Predictive Model}{1}{section.1}}
\@writefile{toc}{\contentsline {subsubsection}{\numberline {1.0.1}Importing modules}{1}{subsubsection.1.0.1}}
\@writefile{toc}{\contentsline {subsection}{\numberline {1.1}\#\#\# Training}{2}{subsection.1.1}}
\@writefile{toc}{\contentsline {paragraph}{Pipelines of the transormers}{2}{section*.1}}
\@writefile{toc}{\contentsline {paragraph}{Read training data}{4}{section*.2}}
\@writefile{toc}{\contentsline {subsection}{\numberline {1.2}\#\#\#\# Training and Testing of Regressors}{6}{subsection.1.2}}
\@writefile{toc}{\contentsline {subsection}{\numberline {1.3}\#\#\#\# RandomForestRegressor}{6}{subsection.1.3}}
\@writefile{toc}{\contentsline {subsection}{\numberline {1.4}\#\#\#Selection of the best customers}{7}{subsection.1.4}}
\@writefile{toc}{\contentsline {subsection}{\numberline {1.5}\#\#\#\# Reading the big test dataset}{7}{subsection.1.5}}
\@writefile{toc}{\contentsline {paragraph}{Transformation of the test dataframe}{10}{section*.3}}
\@writefile{toc}{\contentsline {subsection}{\numberline {1.6}\#\#\#\#\# \textbf  {Parallelization of the dataframe transformation}}{10}{subsection.1.6}}
\@writefile{toc}{\contentsline {subsection}{\numberline {1.7}\#\#\#\#Predicting Price}{12}{subsection.1.7}}
\@writefile{toc}{\contentsline {paragraph}{Final Selection \ldots  {}.}{13}{section*.4}}
\@writefile{toc}{\contentsline {subsection}{\numberline {1.8}\#\# Backup}{14}{subsection.1.8}}
\@writefile{toc}{\contentsline {paragraph}{Optimization of RandomForest (optional)}{14}{section*.5}}
\@writefile{toc}{\contentsline {paragraph}{ExtraTreesRegressor}{15}{section*.6}}
\@writefile{toc}{\contentsline {paragraph}{Optimization of ExtraTreesRegressor (optional)}{16}{section*.7}}
\@writefile{toc}{\contentsline {paragraph}{AdaBoostRegressor}{17}{section*.8}}
\@writefile{toc}{\contentsline {paragraph}{Optimization of AdaBoostRegressor (optional)}{18}{section*.9}}
\@writefile{toc}{\contentsline {paragraph}{GBRT}{19}{section*.10}}
\@writefile{toc}{\contentsline {paragraph}{Optimization of GBRT (optional)}{19}{section*.11}}
\@writefile{toc}{\contentsline {subsection}{\numberline {1.9}\#\#\#\#Initialization of the notebook}{20}{subsection.1.9}}
\@writefile{toc}{\contentsline {subparagraph}{One can use the initialization of the notebook styles below. It will improve \emph  {code blocks} appearance but the \emph  {markdown} cells would be poor presented! Think twice if you need it! }{22}{section*.12}}
