\BOOKMARK [1][-]{section.1}{Merging Best Customers}{}% 1
\BOOKMARK [2][-]{subsection.1.1}{\043\043 Initialization}{section.1}% 2
\BOOKMARK [2][-]{subsection.1.2}{Consistency checks}{section.1}% 3
\BOOKMARK [2][-]{subsection.1.3}{Merging}{section.1}% 4
